keytool -list -v -keystore "C:\__Merv\Brain AR - Unity\_Keystore\user.keystore" -alias ARBrain -storepass android -keypass android

Certificate fingerprints:
         MD5:  2F:DE:8C:19:58:65:02:AB:B1:F4:FB:B0:75:02:47:B1
         SHA1: BC:AB:55:D1:49:9F:DD:5F:54:09:67:9D:79:82:9C:C4:58:17:FC:C3
         SHA256: B5:B6:FD:5F:D7:13:AA:E7:1E:B2:7F:83:AA:74:78:11:39:0C:41:FE:98:75:89:81:54:5A:8B:3B:22:B3:92:0B